-------------------------------------------------------------------------------
Test set: drishti.ui.automation.uiautomation.AppTest
-------------------------------------------------------------------------------
Tests run: 1, Failures: 0, Errors: 0, Skipped: 0, Time elapsed: 14.922 sec
